
{
    "count": 52052,
    "next": "http://aristotle.cloud/api/v4/metadata_info/latest_action/?page=2",
    "previous": null,
    "results": [
        {
            "uuid": "59412d92-dc6e-11ea-afd9-0a8620c9d3ec",
            "date": "2021-10-01T01:38:33.005530Z",
            "action": "modified"
        },
        {
            "uuid": "882d396a-dc6a-11ea-b1f5-0a8620c9d3ec",
            "date": "2021-10-01T01:27:50.825253Z",
            "action": "modified"
        },
        {
            "uuid": "48a4879c-dc6c-11ea-9a41-0a6933dafb30",
            "date": "2021-10-01T01:16:09.158778Z",
            "action": "modified"
        },
        {
            "uuid": "c94dc278-6ce0-11eb-a431-0651c616b19a",
            "date": "2021-10-01T00:55:29.488260Z",
            "action": "deleted"
        },
        {
            "uuid": "749aef96-770b-11eb-a73e-0a8ab402365e",
            "date": "2021-10-01T00:45:18.188209Z",
            "action": "deleted"
        },
        {
            "uuid": "f82dbfae-dc70-11ea-8a08-02b137f3fb1e",
            "date": "2021-10-01T00:01:54.813619Z",
            "action": "modified"
        },
        {
            "uuid": "53f5b1dc-dc6e-11ea-8a29-062f7acd21ca",
            "date": "2021-09-30T22:51:13.840888Z",
            "action": "modified"
        },
        {
            "uuid": "53f5d112-dc6e-11ea-b1f5-0a8620c9d3ec",
            "date": "2021-09-30T22:37:24.444822Z",
            "action": "modified"
        },
        {
            "uuid": "46a43de8-dc6c-11ea-8a08-02b137f3fb1e",
            "date": "2021-09-30T22:20:06.575985Z",
            "action": "modified"
        },
        {
            "uuid": "537be1e0-dc6e-11ea-a913-0a6933dafb30",
            "date": "2021-09-30T22:19:28.742447Z",
            "action": "modified"
        },
        {
            "uuid": "57041c38-dc6e-11ea-8802-062f7acd21ca",
            "date": "2021-09-30T22:14:17.755953Z",
            "action": "modified"
        },
        {
            "uuid": "492f3892-dc6c-11ea-8a08-02b137f3fb1e",
            "date": "2021-09-30T22:07:09.790274Z",
            "action": "modified"
        },
        {
            "uuid": "5794eb48-2239-11ec-808d-0a58a9feac02",
            "date": "2021-09-30T22:02:07.392185Z",
            "action": "modified"
        },
        {
            "uuid": "5770dbcc-2239-11ec-808d-0a58a9feac02",
            "date": "2021-09-30T22:01:55.941971Z",
            "action": "modified"
        },
        {
            "uuid": "73ea745e-cd7d-11eb-83a9-0a58a9feac02",
            "date": "2021-09-30T21:52:19.543523Z",
            "action": "modified"
        },
        {
            "uuid": "e197948c-cd7d-11eb-83a9-0a58a9feac02",
            "date": "2021-09-30T21:51:48.088097Z",
            "action": "modified"
        },
        {
            "uuid": "e987787a-cd7c-11eb-acf5-0a58a9feac02",
            "date": "2021-09-30T21:50:12.677878Z",
            "action": "modified"
        },
        {
            "uuid": "2c760520-21bf-11ec-850b-0a58a9feac02",
            "date": "2021-09-30T07:34:49.469472Z",
            "action": "modified"
        },
        {
            "uuid": "c59832c8-20ed-11ec-808d-0a58a9feac02",
            "date": "2021-09-30T07:34:30.348295Z",
            "action": "modified"
        },
        {
            "uuid": "520f1cb8-20f7-11ec-808d-0a58a9feac02",
            "date": "2021-09-30T07:34:11.804997Z",
            "action": "modified"
        },
        {
            "uuid": "f6ca6560-21a5-11ec-808d-0a58a9feac02",
            "date": "2021-09-30T07:33:53.421702Z",
            "action": "modified"
        },
        {
            "uuid": "4797dc6e-dc6c-11ea-8802-062f7acd21ca",
            "date": "2021-09-30T05:16:43.325350Z",
            "action": "modified"
        },
        {
            "uuid": "553af764-dc6e-11ea-b1f5-0a8620c9d3ec",
            "date": "2021-09-30T05:16:07.661001Z",
            "action": "modified"
        },
        {
            "uuid": "47bb8740-dc6c-11ea-8a29-062f7acd21ca",
            "date": "2021-09-30T05:10:58.023413Z",
            "action": "modified"
        },
        {
            "uuid": "553aa282-dc6e-11ea-906f-062f7acd21ca",
            "date": "2021-09-30T05:10:26.779055Z",
            "action": "modified"
        }
    ]
}