{
    "count": 8720,
    "next": "http://aristotle.cloud/api/v4/metadata/dataelementconcept?page=2&page_size=5",
    "previous": null,
    "results": [
        {
            "id": 53445,
            "created": "2020-11-12T15:35:41.133953+11:00",
            "modified": "2020-11-12T15:35:42.695802+11:00",
            "uuid": "85197f1c-24a0-11eb-9846-0260269b3cbc",
            "name": "Letter: Variable Prompt Indicator",
            "definition": "An indication of a prompt for the text that is capable of being varied or changed is embedded within the message line of a letter.",
            "stewardship_organisation": "7089da98b44c11ea849a5a0bdf2d1ed7",
            "workgroup": 118,
            "version": "1",
            "references": "",
            "origin_URI": "",
            "origin": "",
            "comments": "",
            "objectClass": "889d0f60-dc6a-11ea-b216-0a8620c9d3ec",
            "property": "850393fa-24a0-11eb-9846-0260269b3cbc",
            "conceptualDomain": null,
            "metadatareferencelink_set": [],
            "slots": [],
            "customvalue_set": [],
            "org_records": [],
            "identifiers": []
        },
        {
            "id": 20843,
            "created": "2020-08-12T17:21:22.191079+10:00",
            "modified": "2021-06-21T10:51:34.469467+10:00",
            "uuid": "6c6d6f2c-dc6c-11ea-ac21-02b137f3fb1e",
            "name": "Pharmaceutical Benefits Scheme (PBS) Prescription: Extemporaneous Ingredient Percentage",
            "definition": "A percentage of an extemporaneous ingredient for a Pharmaceutical Benefits Scheme (PBS) Prescription.",
            "stewardship_organisation": "7089da98b44c11ea849a5a0bdf2d1ed7",
            "workgroup": 96,
            "version": "",
            "references": "",
            "origin_URI": "",
            "origin": "",
            "comments": "",
            "objectClass": "8115b472-dc6a-11ea-906f-062f7acd21ca",
            "property": "492f448c-dc6b-11ea-b153-022da9221366",
            "conceptualDomain": null,
            "metadatareferencelink_set": [],
            "slots": [],
            "customvalue_set": [
                {
                    "id": 10727,
                    "name": "Long Name",
                    "field": 5,
                    "content": "Pharmaceutical Benefits Scheme (PBS) Prescription Extemporaneous Ingredient Percentage"
                },
                {
                    "id": 69447,
                    "name": "M204 Name",
                    "field": 6,
                    "content": ""
                },
                {
                    "id": 69448,
                    "name": "Guide for Use",
                    "field": 7,
                    "content": ""
                }
            ],
            "org_records": [],
            "identifiers": [
                {
                    "id": "6c7a7a8c-dc6c-11ea-ac21-02b137f3fb1e",
                    "namespace": 4,
                    "identifier": "73803",
                    "version": "",
                    "order": 0
                }
            ]
        },
        {
            "id": 16348,
            "created": "2020-08-12T17:18:13.978592+10:00",
            "modified": "2021-06-17T10:37:44.690468+10:00",
            "uuid": "fc3e7d4a-dc6b-11ea-8a29-062f7acd21ca",
            "name": "Pharmaceutical Benefits Scheme (PBS) prescription: eligibility card type",
            "definition": "The type of eligibility card held by the patient or Pharmaceutical Benefits Scheme (PBS) consumer for whom the claim for a PBS benefit is made.",
            "stewardship_organisation": "7089da98b44c11ea849a5a0bdf2d1ed7",
            "workgroup": 96,
            "version": "",
            "references": "",
            "origin_URI": "",
            "origin": "Commonwealth Department of Health, Standard 17/12/2015, http://meteor.aihw.gov.au/content/index.phtml/itemId/605146  20/09/2018",
            "comments": "",
            "objectClass": "8115b472-dc6a-11ea-906f-062f7acd21ca",
            "property": "f221ea6e-dc6a-11ea-afd9-0a8620c9d3ec",
            "conceptualDomain": null,
            "metadatareferencelink_set": [],
            "slots": [],
            "customvalue_set": [],
            "org_records": [],
            "identifiers": [
                {
                    "id": "fc49abde-dc6b-11ea-8a29-062f7acd21ca",
                    "namespace": 4,
                    "identifier": "57027",
                    "version": "",
                    "order": 0
                }
            ]
        },
        {
            "id": 144,
            "created": "2018-08-10T14:06:12.626796+10:00",
            "modified": "2020-11-24T20:13:45.267186+11:00",
            "uuid": "3fbc08e8-9c50-11e8-92a9-0273a7ea5052",
            "name": "Household—rent frequency ",
            "definition": "The frequency with which rent is paid by a household for occupancy of a principal residence.",
            "stewardship_organisation": "e4414942db3711e995fe62bb09eaf366",
            "workgroup": 6,
            "version": "",
            "references": "",
            "origin_URI": "http://meteor.aihw.gov.au/content/index.phtml/itemId/650942",
            "origin": "",
            "comments": "",
            "objectClass": "3fa32940-9c50-11e8-92a9-0273a7ea5052",
            "property": "3faa8bb8-9c50-11e8-92a9-0273a7ea5052",
            "conceptualDomain": null,
            "metadatareferencelink_set": [],
            "slots": [],
            "customvalue_set": [
                {
                    "id": 36,
                    "name": "Submitting Organisation",
                    "field": 3,
                    "content": "Australian Government Department of Social Services"
                }
            ],
            "org_records": [],
            "identifiers": [
                {
                    "id": "0069ad94-731d-11ea-826c-6660846ba4fa",
                    "namespace": 2,
                    "identifier": "650942",
                    "version": "1",
                    "order": 0
                }
            ]
        },
        {
            "id": 16349,
            "created": "2020-08-12T17:18:14.204708+10:00",
            "modified": "2021-06-17T10:37:44.466642+10:00",
            "uuid": "fc60fdc0-dc6b-11ea-8ba0-022da9221366",
            "name": "Pharmaceutical Benefits Scheme (PBS) prescription: prescriber type",
            "definition": "The broad field of specialty of the Pharmaceutical Benefits Scheme (PBS) prescriber responsible for the writing and signing of the prescription.",
            "stewardship_organisation": "7089da98b44c11ea849a5a0bdf2d1ed7",
            "workgroup": 96,
            "version": "",
            "references": "",
            "origin_URI": "",
            "origin": "Commonwealth Department of Health, Standard 17/12/2015  http://meteor.aihw.gov.au/content/index.phtml/itemId/603860  20/09/2018",
            "comments": "",
            "objectClass": "8115b472-dc6a-11ea-906f-062f7acd21ca",
            "property": "f20c0b54-dc6a-11ea-906f-062f7acd21ca",
            "conceptualDomain": null,
            "metadatareferencelink_set": [],
            "slots": [],
            "customvalue_set": [],
            "org_records": [],
            "identifiers": [
                {
                    "id": "fc67f3b4-dc6b-11ea-8ba0-022da9221366",
                    "namespace": 4,
                    "identifier": "57022",
                    "version": "",
                    "order": 0
                }
            ]
        }
    ]
}