{
    "count": 22376,
    "next": "http://aristotle.cloud/api/v4/metadata/dataelement?page=2&page_size=1",
    "previous": null,
    "results": [
        {
            "id": 173,
            "created": "2018-08-10T14:07:22.887875+10:00",
            "modified": "2021-04-15T17:53:49.223379+10:00",
            "uuid": "3fc0667c-9c50-11e8-92a9-0273a7ea5052",
            "name": "PIA_Person—date of birth (abbreviated), MMYYYY",
            "definition": "The month and year of birth of the person.",
            "stewardship_organisation": "e4414942db3711e995fe62bb09eaf366",
            "workgroup": 6,
            "version": "",
            "references": "eAS5017 Health Care Client Identification, 2002, Sydney: Standards Australia\r\nAS4846 Health Care Provider Identification, 2004, Sydney: Standards Australia",
            "origin_URI": "http://meteor.aihw.gov.au/content/index.phtml/itemId/375191",
            "origin": "",
            "comments": "",
            "dataElementConcept": "3fb667c6-9c50-11e8-92a9-0273a7ea5052",
            "valueDomain": "3faea216-9c50-11e8-92a9-0273a7ea5052",
            "metadatareferencelink_set": [],
            "slots": [
                {
                    "id": 18,
                    "name": "Short name",
                    "type": "",
                    "value": "Month and year of birth",
                    "order": 0,
                    "permission": 0
                }
            ],
            "customvalue_set": [
                {
                    "id": 638,
                    "name": "Submitting Organisation",
                    "field": 3,
                    "content": "Australian Institute of Health and Welfare"
                }
            ],
            "org_records": [],
            "identifiers": [
                {
                    "id": "00757c6e-731d-11ea-826c-6660846ba4fa",
                    "namespace": 2,
                    "identifier": "375191",
                    "version": "1",
                    "order": 0
                }
            ]
        }
    ]
}