{
    "count": 7965,
    "next": "http://aristotle.cloud/api/v4/metadata/distribution?page=2&page_size=5",
    "previous": null,
    "results": [
        {
            "id": 1707,
            "created": "2019-09-25T09:39:48.103655+10:00",
            "modified": "2021-04-15T17:06:56.717912+10:00",
            "uuid": "9873c198-df24-11e9-834b-86a80d41833e",
            "name": "Client_Disability table",
            "definition": "This distribution represents the Client Disability table in the Data Exchange curated dataset.",
            "stewardship_organisation": "e4414942db3711e995fe62bb09eaf366",
            "workgroup": 7,
            "version": "0.1",
            "references": "",
            "origin_URI": "",
            "origin": "",
            "comments": "",
            "release_date": null,
            "updated_date": null,
            "dataset": "c7ad27d8-de8e-11e9-b527-86a80d41833e",
            "license": "",
            "rights": "",
            "access_URL": null,
            "download_URL": null,
            "byte_size": "",
            "media_type": null,
            "format_type": ".csv",
            "metadatareferencelink_set": [],
            "distributiondataelementpath_set": [
                {
                    "id": "f565518c-731c-11ea-826c-6660846ba4fa",
                    "specialisation_classes": [],
                    "logical_path": "~.ClientDisabilityID",
                    "order": 0,
                    "specific_information": "",
                    "data_element": 1411
                },
                {
                    "id": "f5760982-731c-11ea-826c-6660846ba4fa",
                    "specialisation_classes": [],
                    "logical_path": "~.ClientID",
                    "order": 1,
                    "specific_information": "",
                    "data_element": 1766
                },
                {
                    "id": "f5c2d8ac-731c-11ea-826c-6660846ba4fa",
                    "specialisation_classes": [],
                    "logical_path": "~.DisabilityStatus",
                    "order": 3,
                    "specific_information": "",
                    "data_element": 350
                }
            ],
            "slots": [],
            "customvalue_set": [],
            "org_records": [],
            "identifiers": []
        },
        {
            "id": 1708,
            "created": "2019-09-25T10:17:51.205803+10:00",
            "modified": "2021-04-15T17:53:56.023425+10:00",
            "uuid": "e949527c-df29-11e9-ab7f-86a80d41833e",
            "name": "Client_Attendance table",
            "definition": "This distribution represents the Client Attendance table in the Data Exchange curated dataset.",
            "stewardship_organisation": "e4414942db3711e995fe62bb09eaf366",
            "workgroup": 7,
            "version": "0.1",
            "references": "",
            "origin_URI": "",
            "origin": "",
            "comments": "",
            "release_date": null,
            "updated_date": null,
            "dataset": "c7ad27d8-de8e-11e9-b527-86a80d41833e",
            "license": "",
            "rights": "",
            "access_URL": null,
            "download_URL": null,
            "byte_size": "",
            "media_type": null,
            "format_type": ".csv",
            "metadatareferencelink_set": [],
            "distributiondataelementpath_set": [
                {
                    "id": "f575b6c6-731c-11ea-826c-6660846ba4fa",
                    "specialisation_classes": [],
                    "logical_path": "~.AttendanceID",
                    "order": 1,
                    "specific_information": "",
                    "data_element": 1783
                },
                {
                    "id": "f59c87ec-731c-11ea-826c-6660846ba4fa",
                    "specialisation_classes": [],
                    "logical_path": "~.SessionID",
                    "order": 2,
                    "specific_information": "",
                    "data_element": 1775
                },
                {
                    "id": "f5af35ea-731c-11ea-826c-6660846ba4fa",
                    "specialisation_classes": [],
                    "logical_path": "~.ClientID",
                    "order": 3,
                    "specific_information": "",
                    "data_element": 1766
                },
                {
                    "id": "f5dd5100-731c-11ea-826c-6660846ba4fa",
                    "specialisation_classes": [],
                    "logical_path": "~.OutletID",
                    "order": 4,
                    "specific_information": "",
                    "data_element": 274
                },
                {
                    "id": "f5e8b9fa-731c-11ea-826c-6660846ba4fa",
                    "specialisation_classes": [],
                    "logical_path": "~.ProgramID",
                    "order": 5,
                    "specific_information": "",
                    "data_element": 1396
                },
                {
                    "id": "f5fd56da-731c-11ea-826c-6660846ba4fa",
                    "specialisation_classes": [],
                    "logical_path": "~.ActivityID",
                    "order": 6,
                    "specific_information": "",
                    "data_element": 1398
                },
                {
                    "id": "f6120f58-731c-11ea-826c-6660846ba4fa",
                    "specialisation_classes": [],
                    "logical_path": "~.ServiceType",
                    "order": 7,
                    "specific_information": "",
                    "data_element": 1289
                },
                {
                    "id": "f6245974-731c-11ea-826c-6660846ba4fa",
                    "specialisation_classes": [],
                    "logical_path": "~.SessionConductedDate",
                    "order": 8,
                    "specific_information": "",
                    "data_element": 890
                },
                {
                    "id": "f62c9742-731c-11ea-826c-6660846ba4fa",
                    "specialisation_classes": [],
                    "logical_path": "~.OutletName",
                    "order": 9,
                    "specific_information": "",
                    "data_element": 949
                },
                {
                    "id": "f6363ef0-731c-11ea-826c-6660846ba4fa",
                    "specialisation_classes": [],
                    "logical_path": "~.SessionSetting",
                    "order": 10,
                    "specific_information": "",
                    "data_element": 1331
                },
                {
                    "id": "f6448852-731c-11ea-826c-6660846ba4fa",
                    "specialisation_classes": [],
                    "logical_path": "~.ParticipationType",
                    "order": 11,
                    "specific_information": "",
                    "data_element": 296
                },
                {
                    "id": "f64ea95e-731c-11ea-826c-6660846ba4fa",
                    "specialisation_classes": [],
                    "logical_path": "~.Topic",
                    "order": 12,
                    "specific_information": "",
                    "data_element": 1405
                },
                {
                    "id": "f654e1ac-731c-11ea-826c-6660846ba4fa",
                    "specialisation_classes": [],
                    "logical_path": "~.MoneyWorkshop",
                    "order": 13,
                    "specific_information": "",
                    "data_element": 1409
                }
            ],
            "slots": [],
            "customvalue_set": [],
            "org_records": [],
            "identifiers": []
        },
        {
            "id": 1706,
            "created": "2019-09-24T15:48:47.313707+10:00",
            "modified": "2020-11-24T19:51:29.444615+11:00",
            "uuid": "fa092d3a-de8e-11e9-834b-86a80d41833e",
            "name": "Client table",
            "definition": "This distribution represents the Client table in the Data Exchange curated dataset.",
            "stewardship_organisation": "e4414942db3711e995fe62bb09eaf366",
            "workgroup": 7,
            "version": "",
            "references": "",
            "origin_URI": "",
            "origin": "",
            "comments": "",
            "release_date": null,
            "updated_date": null,
            "dataset": "c7ad27d8-de8e-11e9-b527-86a80d41833e",
            "license": "",
            "rights": "",
            "access_URL": null,
            "download_URL": null,
            "byte_size": "",
            "media_type": null,
            "format_type": ".CSV",
            "metadatareferencelink_set": [],
            "distributiondataelementpath_set": [
                {
                    "id": "f565fcd6-731c-11ea-826c-6660846ba4fa",
                    "specialisation_classes": [],
                    "logical_path": "~.ClientID",
                    "order": 0,
                    "specific_information": "",
                    "data_element": 1766
                },
                {
                    "id": "f58dbe74-731c-11ea-826c-6660846ba4fa",
                    "specialisation_classes": [],
                    "logical_path": "~.DeliveryOrganisationID",
                    "order": 1,
                    "specific_information": "",
                    "data_element": 1793
                },
                {
                    "id": "f58ffc7a-731c-11ea-826c-6660846ba4fa",
                    "specialisation_classes": [],
                    "logical_path": "~.DeliveryOrganisationName",
                    "order": 2,
                    "specific_information": "",
                    "data_element": 269
                },
                {
                    "id": "f5b502cc-731c-11ea-826c-6660846ba4fa",
                    "specialisation_classes": [],
                    "logical_path": "~.BirthMonth",
                    "order": 3,
                    "specific_information": "",
                    "data_element": 1788
                },
                {
                    "id": "f5d4a302-731c-11ea-826c-6660846ba4fa",
                    "specialisation_classes": [],
                    "logical_path": "~.BirthYear",
                    "order": 4,
                    "specific_information": "",
                    "data_element": 1791
                },
                {
                    "id": "f5e6a7c8-731c-11ea-826c-6660846ba4fa",
                    "specialisation_classes": [],
                    "logical_path": "~.Gender",
                    "order": 5,
                    "specific_information": "",
                    "data_element": 340
                },
                {
                    "id": "f6050164-731c-11ea-826c-6660846ba4fa",
                    "specialisation_classes": [],
                    "logical_path": "~.ATSIStatus",
                    "order": 6,
                    "specific_information": "",
                    "data_element": 455
                },
                {
                    "id": "f60bde1c-731c-11ea-826c-6660846ba4fa",
                    "specialisation_classes": [],
                    "logical_path": "~.BirthCountryCode",
                    "order": 7,
                    "specific_information": "",
                    "data_element": 361
                },
                {
                    "id": "f6204604-731c-11ea-826c-6660846ba4fa",
                    "specialisation_classes": [],
                    "logical_path": "~.MainLanguageCode",
                    "order": 8,
                    "specific_information": "",
                    "data_element": 348
                },
                {
                    "id": "f628bc12-731c-11ea-826c-6660846ba4fa",
                    "specialisation_classes": [],
                    "logical_path": "~.AncestryCode",
                    "order": 9,
                    "specific_information": "",
                    "data_element": 259
                },
                {
                    "id": "f63b52e6-731c-11ea-826c-6660846ba4fa",
                    "specialisation_classes": [],
                    "logical_path": "~.MigrationVisa",
                    "order": 10,
                    "specific_information": "",
                    "data_element": 1600
                },
                {
                    "id": "f6466622-731c-11ea-826c-6660846ba4fa",
                    "specialisation_classes": [],
                    "logical_path": "~.MigrationArrivalMonth",
                    "order": 11,
                    "specific_information": "",
                    "data_element": 1587
                },
                {
                    "id": "f6496f3e-731c-11ea-826c-6660846ba4fa",
                    "specialisation_classes": [],
                    "logical_path": "~.MigrationArrivalYear",
                    "order": 12,
                    "specific_information": "",
                    "data_element": 1583
                },
                {
                    "id": "f652f8ec-731c-11ea-826c-6660846ba4fa",
                    "specialisation_classes": [],
                    "logical_path": "~.EducationLevel",
                    "order": 13,
                    "specific_information": "",
                    "data_element": 1715
                },
                {
                    "id": "f65ac874-731c-11ea-826c-6660846ba4fa",
                    "specialisation_classes": [],
                    "logical_path": "~.EmploymentStatus",
                    "order": 14,
                    "specific_information": "",
                    "data_element": 1753
                },
                {
                    "id": "f662dafa-731c-11ea-826c-6660846ba4fa",
                    "specialisation_classes": [],
                    "logical_path": "~.IncomeSource",
                    "order": 15,
                    "specific_information": "",
                    "data_element": 1533
                },
                {
                    "id": "f6638b94-731c-11ea-826c-6660846ba4fa",
                    "specialisation_classes": [],
                    "logical_path": "~.ClientPostcode",
                    "order": 16,
                    "specific_information": "",
                    "data_element": 1747
                },
                {
                    "id": "f6692f36-731c-11ea-826c-6660846ba4fa",
                    "specialisation_classes": [],
                    "logical_path": "~.AccommodationSetting",
                    "order": 17,
                    "specific_information": "",
                    "data_element": 1604
                },
                {
                    "id": "f66c30f0-731c-11ea-826c-6660846ba4fa",
                    "specialisation_classes": [],
                    "logical_path": "~.HomelessnessStatus",
                    "order": 18,
                    "specific_information": "",
                    "data_element": 1525
                },
                {
                    "id": "f66f13ec-731c-11ea-826c-6660846ba4fa",
                    "specialisation_classes": [],
                    "logical_path": "~.HouseholdComposition",
                    "order": 19,
                    "specific_information": "",
                    "data_element": 1529
                },
                {
                    "id": "f6700a54-731c-11ea-826c-6660846ba4fa",
                    "specialisation_classes": [],
                    "logical_path": "~.IsCarer",
                    "order": 20,
                    "specific_information": "",
                    "data_element": 1757
                },
                {
                    "id": "f671c970-731c-11ea-826c-6660846ba4fa",
                    "specialisation_classes": [],
                    "logical_path": "~.HasCarer",
                    "order": 21,
                    "specific_information": "",
                    "data_element": 1615
                }
            ],
            "slots": [],
            "customvalue_set": [],
            "org_records": [],
            "identifiers": []
        },
        {
            "id": 1709,
            "created": "2019-09-25T10:34:06.655486+10:00",
            "modified": "2021-04-15T17:06:56.821724+10:00",
            "uuid": "2eb31dfa-df2c-11e9-834b-86a80d41833e",
            "name": "Client_Outcome_Assessment table",
            "definition": "This distribution represents the Client Outcome Assessment table in the Data Exchange curated dataset.",
            "stewardship_organisation": "e4414942db3711e995fe62bb09eaf366",
            "workgroup": 7,
            "version": "0.1",
            "references": "",
            "origin_URI": "",
            "origin": "",
            "comments": "",
            "release_date": null,
            "updated_date": null,
            "dataset": "c7ad27d8-de8e-11e9-b527-86a80d41833e",
            "license": "",
            "rights": "",
            "access_URL": null,
            "download_URL": null,
            "byte_size": "",
            "media_type": null,
            "format_type": ".csv",
            "metadatareferencelink_set": [],
            "distributiondataelementpath_set": [
                {
                    "id": "f58fad06-731c-11ea-826c-6660846ba4fa",
                    "specialisation_classes": [],
                    "logical_path": "~.AttendanceID",
                    "order": 1,
                    "specific_information": "",
                    "data_element": 1783
                },
                {
                    "id": "f59e7552-731c-11ea-826c-6660846ba4fa",
                    "specialisation_classes": [],
                    "logical_path": "~.ClientScoreID",
                    "order": 2,
                    "specific_information": "",
                    "data_element": 1924
                },
                {
                    "id": "f5b3bfc0-731c-11ea-826c-6660846ba4fa",
                    "specialisation_classes": [],
                    "logical_path": "~.ClientAssessmentID",
                    "order": 3,
                    "specific_information": "",
                    "data_element": 1925
                },
                {
                    "id": "f5dc1150-731c-11ea-826c-6660846ba4fa",
                    "specialisation_classes": [],
                    "logical_path": "~.OutcomeType",
                    "order": 4,
                    "specific_information": "",
                    "data_element": 1687
                },
                {
                    "id": "f5e86496-731c-11ea-826c-6660846ba4fa",
                    "specialisation_classes": [],
                    "logical_path": "~.OutcomeDomain",
                    "order": 5,
                    "specific_information": "",
                    "data_element": 1695
                },
                {
                    "id": "f5f956d4-731c-11ea-826c-6660846ba4fa",
                    "specialisation_classes": [],
                    "logical_path": "~.AssessmentType",
                    "order": 6,
                    "specific_information": "",
                    "data_element": 1663
                },
                {
                    "id": "f60a9e62-731c-11ea-826c-6660846ba4fa",
                    "specialisation_classes": [],
                    "logical_path": "~.ConductedDate",
                    "order": 7,
                    "specific_information": "",
                    "data_element": 890
                },
                {
                    "id": "f623a862-731c-11ea-826c-6660846ba4fa",
                    "specialisation_classes": [],
                    "logical_path": "~.AssessmentCreatedDate",
                    "order": 8,
                    "specific_information": "",
                    "data_element": 1672
                },
                {
                    "id": "f62bde2e-731c-11ea-826c-6660846ba4fa",
                    "specialisation_classes": [],
                    "logical_path": "~.OutcomeDomainScoreDesc",
                    "order": 9,
                    "specific_information": "",
                    "data_element": 1923
                },
                {
                    "id": "f63d49ca-731c-11ea-826c-6660846ba4fa",
                    "specialisation_classes": [],
                    "logical_path": "~.OutcomeDomainScore",
                    "order": 10,
                    "specific_information": "",
                    "data_element": 1922
                }
            ],
            "slots": [],
            "customvalue_set": [],
            "org_records": [],
            "identifiers": []
        },
        {
            "id": 55566,
            "created": "2021-02-24T14:44:32.338863+11:00",
            "modified": "2021-02-24T14:54:00.473517+11:00",
            "uuid": "9aea8774-7652-11eb-a73e-0a8ab402365e",
            "name": "EDW Landing Table - DEBT_DEBT_DBKH",
            "definition": "Enterprise data warehouse landing table for:\r\n\r\nFile: DMNDEBT\r\n\r\nRecord: DEBT\r\n\r\nGroup: DMN.DEBT.KWD.HIST.DBKH",
            "stewardship_organisation": "7089da98b44c11ea849a5a0bdf2d1ed7",
            "workgroup": 89,
            "version": "1",
            "references": "",
            "origin_URI": "",
            "origin": "",
            "comments": "",
            "release_date": null,
            "updated_date": null,
            "dataset": null,
            "license": "",
            "rights": "",
            "access_URL": null,
            "download_URL": null,
            "byte_size": "",
            "media_type": null,
            "format_type": null,
            "metadatareferencelink_set": [],
            "distributiondataelementpath_set": [
                {
                    "id": "ed3eb832-7653-11eb-a73e-0a8ab402365e",
                    "specialisation_classes": [],
                    "logical_path": "DEBT.ID",
                    "order": 0,
                    "specific_information": "The unique identifier for Debt Management System. Also - For NSR: Records the DMIS debt id which resulted from this overpayment.",
                    "data_element": 29695
                },
                {
                    "id": "ed3ed89e-7653-11eb-a73e-0a8ab402365e",
                    "specialisation_classes": [],
                    "logical_path": "RECORD.TYPE",
                    "order": 1,
                    "specific_information": "This is the field which identifies the record type in an M204FIELD.",
                    "data_element": 21779
                },
                {
                    "id": "ed3ef806-7653-11eb-a73e-0a8ab402365e",
                    "specialisation_classes": [],
                    "logical_path": "DBKH.AMR",
                    "order": 2,
                    "specific_information": "Activity Management Identifier",
                    "data_element": 21008
                },
                {
                    "id": "ed3f14b2-7653-11eb-a73e-0a8ab402365e",
                    "specialisation_classes": [],
                    "logical_path": "DBKH.START.DATE",
                    "order": 3,
                    "specific_information": "Date from which the keyword was applied.",
                    "data_element": 21111
                }
            ],
            "slots": [],
            "customvalue_set": [
                {
                    "id": 65704,
                    "name": "Dataset Type",
                    "field": 8,
                    "content": "EDWDataSet"
                },
                {
                    "id": 65705,
                    "name": "Long Name",
                    "field": 5,
                    "content": ""
                },
                {
                    "id": 65706,
                    "name": "Physical Name",
                    "field": 10,
                    "content": ""
                },
                {
                    "id": 65707,
                    "name": "M204 Name",
                    "field": 6,
                    "content": "DEBT.DEBT.DBKH"
                },
                {
                    "id": 65708,
                    "name": "Guide for Use",
                    "field": 7,
                    "content": ""
                }
            ],
            "org_records": [],
            "identifiers": []
        }
    ]
}
