{
    "count": 9611,
    "next": "http://aristotle.cloud/api/v4/links/?page=2",
    "previous": null,
    "results": [
        {
            "pk": 7895,
            "relation": "74caf766-dc71-11ea-9a41-0a6933dafb30",
            "root_item": "ba8154ae-dc70-11ea-906f-062f7acd21ca",
            "linkend_set": [
                {
                    "role": "74d4d31c-dc71-11ea-9a41-0a6933dafb30",
                    "concept": 44233
                },
                {
                    "role": "74d4d31c-dc71-11ea-9a41-0a6933dafb30",
                    "concept": 48663
                }
            ],
            "modified": "2020-08-12T18:02:11.733308+10:00"
        },
        {
            "pk": 9029,
            "relation": "7503c06e-dc71-11ea-9a41-0a6933dafb30",
            "root_item": "9e080f34-06a5-11eb-9b15-0292e36afce8",
            "linkend_set": [
                {
                    "role": "7510f8e2-dc71-11ea-9a41-0a6933dafb30",
                    "concept": 43375
                },
                {
                    "role": "750ba734-dc71-11ea-9a41-0a6933dafb30",
                    "concept": 52364
                }
            ],
            "modified": "2020-10-05T11:56:56.535139+11:00"
        },
        {
            "pk": 9839,
            "relation": "7503c06e-dc71-11ea-9a41-0a6933dafb30",
            "root_item": "e81dcc00-2ae8-11eb-b6de-02a3d3aeaf1e",
            "linkend_set": [
                {
                    "role": "7510f8e2-dc71-11ea-9a41-0a6933dafb30",
                    "concept": 47281
                },
                {
                    "role": "750ba734-dc71-11ea-9a41-0a6933dafb30",
                    "concept": 53735
                }
            ],
            "modified": "2020-11-20T15:29:24.313796+11:00"
        },
        {
            "pk": 8395,
            "relation": "74caf766-dc71-11ea-9a41-0a6933dafb30",
            "root_item": "d13b54f6-dc70-11ea-b735-022da9221366",
            "linkend_set": [
                {
                    "role": "74d4d31c-dc71-11ea-9a41-0a6933dafb30",
                    "concept": 46277
                },
                {
                    "role": "74d4d31c-dc71-11ea-9a41-0a6933dafb30",
                    "concept": 49238
                }
            ],
            "modified": "2020-08-12T18:02:31.094769+10:00"
        },
        {
            "pk": 8585,
            "relation": "74caf766-dc71-11ea-9a41-0a6933dafb30",
            "root_item": "d7c1a730-dc70-11ea-b216-0a8620c9d3ec",
            "linkend_set": [
                {
                    "role": "74d4d31c-dc71-11ea-9a41-0a6933dafb30",
                    "concept": 47371
                },
                {
                    "role": "74d4d31c-dc71-11ea-9a41-0a6933dafb30",
                    "concept": 49432
                }
            ],
            "modified": "2020-08-12T18:02:39.431677+10:00"
        },
        {
            "pk": 3298,
            "relation": "7503c06e-dc71-11ea-9a41-0a6933dafb30",
            "root_item": "930ff894-dc70-11ea-906f-062f7acd21ca",
            "linkend_set": [
                {
                    "role": "7510f8e2-dc71-11ea-9a41-0a6933dafb30",
                    "concept": 45064
                },
                {
                    "role": "750ba734-dc71-11ea-9a41-0a6933dafb30",
                    "concept": 47790
                }
            ],
            "modified": "2020-08-12T17:59:25.700769+10:00"
        },
        {
            "pk": 3293,
            "relation": "7503c06e-dc71-11ea-9a41-0a6933dafb30",
            "root_item": "930ff894-dc70-11ea-906f-062f7acd21ca",
            "linkend_set": [
                {
                    "role": "7510f8e2-dc71-11ea-9a41-0a6933dafb30",
                    "concept": 44543
                },
                {
                    "role": "750ba734-dc71-11ea-9a41-0a6933dafb30",
                    "concept": 47790
                }
            ],
            "modified": "2020-08-12T17:59:25.396169+10:00"
        },
        {
            "pk": 3292,
            "relation": "7503c06e-dc71-11ea-9a41-0a6933dafb30",
            "root_item": "930ff894-dc70-11ea-906f-062f7acd21ca",
            "linkend_set": [
                {
                    "role": "7510f8e2-dc71-11ea-9a41-0a6933dafb30",
                    "concept": 45087
                },
                {
                    "role": "750ba734-dc71-11ea-9a41-0a6933dafb30",
                    "concept": 47790
                }
            ],
            "modified": "2020-08-12T17:59:25.396174+10:00"
        },
        {
            "pk": 3288,
            "relation": "7503c06e-dc71-11ea-9a41-0a6933dafb30",
            "root_item": "930ff894-dc70-11ea-906f-062f7acd21ca",
            "linkend_set": [
                {
                    "role": "7510f8e2-dc71-11ea-9a41-0a6933dafb30",
                    "concept": 45071
                },
                {
                    "role": "750ba734-dc71-11ea-9a41-0a6933dafb30",
                    "concept": 47790
                }
            ],
            "modified": "2020-08-12T17:59:25.391553+10:00"
        },
        {
            "pk": 3286,
            "relation": "7503c06e-dc71-11ea-9a41-0a6933dafb30",
            "root_item": "930ff894-dc70-11ea-906f-062f7acd21ca",
            "linkend_set": [
                {
                    "role": "7510f8e2-dc71-11ea-9a41-0a6933dafb30",
                    "concept": 45725
                },
                {
                    "role": "750ba734-dc71-11ea-9a41-0a6933dafb30",
                    "concept": 47790
                }
            ],
            "modified": "2020-08-12T17:59:25.389201+10:00"
        },
        {
            "pk": 3283,
            "relation": "7503c06e-dc71-11ea-9a41-0a6933dafb30",
            "root_item": "930ff894-dc70-11ea-906f-062f7acd21ca",
            "linkend_set": [
                {
                    "role": "7510f8e2-dc71-11ea-9a41-0a6933dafb30",
                    "concept": 45694
                },
                {
                    "role": "750ba734-dc71-11ea-9a41-0a6933dafb30",
                    "concept": 47790
                }
            ],
            "modified": "2020-08-12T17:59:25.388540+10:00"
        },
        {
            "pk": 3281,
            "relation": "7503c06e-dc71-11ea-9a41-0a6933dafb30",
            "root_item": "930ff894-dc70-11ea-906f-062f7acd21ca",
            "linkend_set": [
                {
                    "role": "7510f8e2-dc71-11ea-9a41-0a6933dafb30",
                    "concept": 45054
                },
                {
                    "role": "750ba734-dc71-11ea-9a41-0a6933dafb30",
                    "concept": 47790
                }
            ],
            "modified": "2020-08-12T17:59:25.379596+10:00"
        },
        {
            "pk": 3279,
            "relation": "7503c06e-dc71-11ea-9a41-0a6933dafb30",
            "root_item": "930ff894-dc70-11ea-906f-062f7acd21ca",
            "linkend_set": [
                {
                    "role": "7510f8e2-dc71-11ea-9a41-0a6933dafb30",
                    "concept": 45903
                },
                {
                    "role": "750ba734-dc71-11ea-9a41-0a6933dafb30",
                    "concept": 47790
                }
            ],
            "modified": "2020-08-12T17:59:24.994208+10:00"
        },
        {
            "pk": 3278,
            "relation": "7503c06e-dc71-11ea-9a41-0a6933dafb30",
            "root_item": "930ff894-dc70-11ea-906f-062f7acd21ca",
            "linkend_set": [
                {
                    "role": "7510f8e2-dc71-11ea-9a41-0a6933dafb30",
                    "concept": 45704
                },
                {
                    "role": "750ba734-dc71-11ea-9a41-0a6933dafb30",
                    "concept": 47790
                }
            ],
            "modified": "2020-08-12T17:59:24.978426+10:00"
        },
        {
            "pk": 3275,
            "relation": "7503c06e-dc71-11ea-9a41-0a6933dafb30",
            "root_item": "930ff894-dc70-11ea-906f-062f7acd21ca",
            "linkend_set": [
                {
                    "role": "7510f8e2-dc71-11ea-9a41-0a6933dafb30",
                    "concept": 45763
                },
                {
                    "role": "750ba734-dc71-11ea-9a41-0a6933dafb30",
                    "concept": 47790
                }
            ],
            "modified": "2020-08-12T17:59:24.932068+10:00"
        },
        {
            "pk": 3271,
            "relation": "7503c06e-dc71-11ea-9a41-0a6933dafb30",
            "root_item": "930ff894-dc70-11ea-906f-062f7acd21ca",
            "linkend_set": [
                {
                    "role": "7510f8e2-dc71-11ea-9a41-0a6933dafb30",
                    "concept": 45705
                },
                {
                    "role": "750ba734-dc71-11ea-9a41-0a6933dafb30",
                    "concept": 47790
                }
            ],
            "modified": "2020-08-12T17:59:24.724181+10:00"
        },
        {
            "pk": 3269,
            "relation": "7503c06e-dc71-11ea-9a41-0a6933dafb30",
            "root_item": "930ff894-dc70-11ea-906f-062f7acd21ca",
            "linkend_set": [
                {
                    "role": "7510f8e2-dc71-11ea-9a41-0a6933dafb30",
                    "concept": 45755
                },
                {
                    "role": "750ba734-dc71-11ea-9a41-0a6933dafb30",
                    "concept": 47790
                }
            ],
            "modified": "2020-08-12T17:59:24.723685+10:00"
        },
        {
            "pk": 8388,
            "relation": "74caf766-dc71-11ea-9a41-0a6933dafb30",
            "root_item": "d13a9002-dc70-11ea-8802-062f7acd21ca",
            "linkend_set": [
                {
                    "role": "74d4d31c-dc71-11ea-9a41-0a6933dafb30",
                    "concept": 44398
                },
                {
                    "role": "74d4d31c-dc71-11ea-9a41-0a6933dafb30",
                    "concept": 49240
                }
            ],
            "modified": "2020-08-12T18:02:30.779390+10:00"
        },
        {
            "pk": 10053,
            "relation": "74caf766-dc71-11ea-9a41-0a6933dafb30",
            "root_item": "30a8adcc-dac1-11eb-8f94-0a58a9feac02",
            "linkend_set": [
                {
                    "role": "74d4d31c-dc71-11ea-9a41-0a6933dafb30",
                    "concept": 57074
                },
                {
                    "role": "74d4d31c-dc71-11ea-9a41-0a6933dafb30",
                    "concept": 57068
                }
            ],
            "modified": "2021-07-02T12:30:56.490932+10:00"
        },
        {
            "pk": 7175,
            "relation": "74caf766-dc71-11ea-9a41-0a6933dafb30",
            "root_item": "d4d65e68-dc6f-11ea-a913-0a6933dafb30",
            "linkend_set": [
                {
                    "role": "74d4d31c-dc71-11ea-9a41-0a6933dafb30",
                    "concept": 48889
                },
                {
                    "role": "74d4d31c-dc71-11ea-9a41-0a6933dafb30",
                    "concept": 45440
                }
            ],
            "modified": "2020-08-12T18:01:43.883602+10:00"
        },
        {
            "pk": 7101,
            "relation": "74caf766-dc71-11ea-9a41-0a6933dafb30",
            "root_item": "d4d65e68-dc6f-11ea-a913-0a6933dafb30",
            "linkend_set": [
                {
                    "role": "74d4d31c-dc71-11ea-9a41-0a6933dafb30",
                    "concept": 48814
                },
                {
                    "role": "74d4d31c-dc71-11ea-9a41-0a6933dafb30",
                    "concept": 45440
                }
            ],
            "modified": "2020-08-12T18:01:41.751417+10:00"
        },
        {
            "pk": 8528,
            "relation": "74caf766-dc71-11ea-9a41-0a6933dafb30",
            "root_item": "d677d930-dc70-11ea-8a08-02b137f3fb1e",
            "linkend_set": [
                {
                    "role": "74d4d31c-dc71-11ea-9a41-0a6933dafb30",
                    "concept": 47466
                },
                {
                    "role": "74d4d31c-dc71-11ea-9a41-0a6933dafb30",
                    "concept": 49393
                }
            ],
            "modified": "2020-08-12T18:02:36.925191+10:00"
        },
        {
            "pk": 7581,
            "relation": "74caf766-dc71-11ea-9a41-0a6933dafb30",
            "root_item": "45f69126-dc70-11ea-8a29-062f7acd21ca",
            "linkend_set": [
                {
                    "role": "74d4d31c-dc71-11ea-9a41-0a6933dafb30",
                    "concept": 49358
                },
                {
                    "role": "74d4d31c-dc71-11ea-9a41-0a6933dafb30",
                    "concept": 46804
                }
            ],
            "modified": "2020-08-12T18:01:59.602171+10:00"
        },
        {
            "pk": 9384,
            "relation": "7503c06e-dc71-11ea-9a41-0a6933dafb30",
            "root_item": "02ddae5e-0c24-11eb-99fa-064a912464ec",
            "linkend_set": [
                {
                    "role": "7510f8e2-dc71-11ea-9a41-0a6933dafb30",
                    "concept": 46611
                },
                {
                    "role": "750ba734-dc71-11ea-9a41-0a6933dafb30",
                    "concept": 52772
                }
            ],
            "modified": "2020-10-12T11:44:23.608569+11:00"
        },
        {
            "pk": 7386,
            "relation": "74caf766-dc71-11ea-9a41-0a6933dafb30",
            "root_item": "ee4e37b2-dc6f-11ea-8a08-02b137f3fb1e",
            "linkend_set": [
                {
                    "role": "74d4d31c-dc71-11ea-9a41-0a6933dafb30",
                    "concept": 49134
                },
                {
                    "role": "74d4d31c-dc71-11ea-9a41-0a6933dafb30",
                    "concept": 45728
                }
            ],
            "modified": "2020-08-12T18:01:51.924820+10:00"
        }
    ]
}
