{
    "count": 7674,
    "next": "http://aristotle.cloud/api/v4/metadata/property?page=2&page_size=5",
    "previous": null,
    "results": [
        {
            "id": 53444,
            "created": "2020-11-12T15:35:40.990312+11:00",
            "modified": "2020-11-12T15:35:40.990312+11:00",
            "uuid": "850393fa-24a0-11eb-9846-0260269b3cbc",
            "name": "Variable Prompt Indicator",
            "definition": "An indication of a prompt for something that is capable of being varied or changed.",
            "stewardship_organisation": "7089da98b44c11ea849a5a0bdf2d1ed7",
            "workgroup": 118,
            "version": "1",
            "references": "",
            "origin_URI": "",
            "origin": "",
            "comments": "",
            "metadatareferencelink_set": [],
            "slots": [],
            "customvalue_set": [],
            "org_records": [],
            "identifiers": []
        },
        {
            "id": 6014,
            "created": "2020-08-12T17:10:19.606874+10:00",
            "modified": "2021-07-01T16:12:48.407972+10:00",
            "uuid": "e17f1b46-dc6a-11ea-b1f5-0a8620c9d3ec",
            "name": "Address End Date",
            "definition": "The date on which a collection of information used for describing the location of an entity and details describing how the entity can be contacted is no longer used.",
            "stewardship_organisation": "7089da98b44c11ea849a5a0bdf2d1ed7",
            "workgroup": 118,
            "version": "",
            "references": "",
            "origin_URI": "",
            "origin": "Standards Australia 2006. AS 4590�2006 Interchange of client information. Sydney: Standards Australia.",
            "comments": "",
            "metadatareferencelink_set": [],
            "slots": [],
            "customvalue_set": [],
            "org_records": [],
            "identifiers": [
                {
                    "id": "e1860802-dc6a-11ea-b1f5-0a8620c9d3ec",
                    "namespace": 4,
                    "identifier": "21047",
                    "version": "",
                    "order": 0
                }
            ]
        },
        {
            "id": 55927,
            "created": "2021-03-17T14:13:23.875778+11:00",
            "modified": "2021-04-09T15:31:19.015429+10:00",
            "uuid": "bbe66fe2-86ce-11eb-ad52-0af89844d98e",
            "name": "Review Exchange Rate",
            "definition": "A rate at which one currency can be exchanged for another relating to a review.\r\n\r\n ",
            "stewardship_organisation": "7089da98b44c11ea849a5a0bdf2d1ed7",
            "workgroup": 118,
            "version": "1",
            "references": "",
            "origin_URI": "",
            "origin": "",
            "comments": "",
            "metadatareferencelink_set": [],
            "slots": [],
            "customvalue_set": [
                {
                    "id": 67643,
                    "name": "Long Name",
                    "field": 5,
                    "content": ""
                },
                {
                    "id": 67644,
                    "name": "M204 Name",
                    "field": 6,
                    "content": ""
                },
                {
                    "id": 67645,
                    "name": "Guide for Use",
                    "field": 7,
                    "content": ""
                }
            ],
            "org_records": [],
            "identifiers": []
        },
        {
            "id": 6511,
            "created": "2020-08-12T17:10:47.198174+10:00",
            "modified": "2021-06-29T14:31:43.467221+10:00",
            "uuid": "f1f134f0-dc6a-11ea-906f-062f7acd21ca",
            "name": "Regulation 24 Applicable Indicator",
            "definition": "An indicator of whether Regulation 24 of the National Health (Pharmaceutical Benefits) Regulations 1960 (Cwth) is applicable.",
            "stewardship_organisation": "7089da98b44c11ea849a5a0bdf2d1ed7",
            "workgroup": 118,
            "version": "",
            "references": "",
            "origin_URI": "",
            "origin": "Commonwealth Department of Health, Standard 17/12/2015",
            "comments": "Regulation 24 allows a pharmacist to supply an original prescription medication and all of its repeats at the one time.",
            "metadatareferencelink_set": [],
            "slots": [],
            "customvalue_set": [
                {
                    "id": 1503,
                    "name": "Long Name",
                    "field": 5,
                    "content": "Regulation 24 applicable indicator"
                },
                {
                    "id": 72513,
                    "name": "M204 Name",
                    "field": 6,
                    "content": ""
                },
                {
                    "id": 72514,
                    "name": "Guide for Use",
                    "field": 7,
                    "content": ""
                }
            ],
            "org_records": [],
            "identifiers": [
                {
                    "id": "f1f8ddae-dc6a-11ea-906f-062f7acd21ca",
                    "namespace": 4,
                    "identifier": "56906",
                    "version": "",
                    "order": 0
                }
            ]
        },
        {
            "id": 1754,
            "created": "2019-10-02T14:21:01.572991+10:00",
            "modified": "2020-11-24T20:13:48.460528+11:00",
            "uuid": "0ab6efbc-e4cc-11e9-a95c-129a57c22235",
            "name": "Is a carer",
            "definition": "Whether an individual is a carer in a carer relationship.\r\n\r\nA carer relationship exists when any person (the carer), such as a family member, friend or neighbour provides regular, ongoing assistance to another person (the care recipient) who has care needs, generally as a result of becoming frail due to age or having a disability, mental health condition or other chronic health condition that requires ongoing care.",
            "stewardship_organisation": "e4414942db3711e995fe62bb09eaf366",
            "workgroup": 7,
            "version": "0.1",
            "references": "",
            "origin_URI": "",
            "origin": "",
            "comments": "",
            "metadatareferencelink_set": [],
            "slots": [],
            "customvalue_set": [],
            "org_records": [],
            "identifiers": []
        }
    ]
}