{
    "count": 4083,
    "next": "http://aristotle.cloud/api/v4/metadata/valuedomain?page=2&page_size=5",
    "previous": null,
    "results": [
        {
            "id": 13361,
            "created": "2020-08-12T17:16:00.708974+10:00",
            "modified": "2021-06-21T11:12:20.958798+10:00",
            "uuid": "accf2868-dc6b-11ea-b1f5-0a8620c9d3ec",
            "name": "Health Insurance Commission (HIC) Online Financial Account Code X(3)",
            "definition": "A code set containing the Health Insurance Commission (HIC) Online financial account.",
            "stewardship_organisation": "7089da98b44c11ea849a5a0bdf2d1ed7",
            "workgroup": 118,
            "version": "",
            "references": "",
            "origin_URI": "",
            "origin": "",
            "comments": "",
            "data_type": "6c35bd4a-dc6a-11ea-906f-062f7acd21ca",
            "format": "X(3)",
            "maximum_length": 3,
            "unit_of_measure": null,
            "conceptual_domain": null,
            "classification_scheme": null,
            "representation_class": 2,
            "description": "",
            "metadatareferencelink_set": [],
            "permissiblevalue_set": [],
            "supplementaryvalue_set": [],
            "slots": [],
            "customvalue_set": [],
            "org_records": [],
            "identifiers": [
                {
                    "id": "acdacd8a-dc6b-11ea-b1f5-0a8620c9d3ec",
                    "namespace": 4,
                    "identifier": "73696",
                    "version": "",
                    "order": 0
                }
            ],
            "reference_classification": null
        },
        {
            "id": 13360,
            "created": "2020-08-12T17:16:00.395651+10:00",
            "modified": "2021-06-21T11:12:21.479886+10:00",
            "uuid": "ac9f5944-dc6b-11ea-ac21-02b137f3fb1e",
            "name": "Authority Referral Status Code X(5)",
            "definition": "A code set that represents a status of an authority referral.",
            "stewardship_organisation": "7089da98b44c11ea849a5a0bdf2d1ed7",
            "workgroup": 96,
            "version": "",
            "references": "",
            "origin_URI": "",
            "origin": "",
            "comments": "",
            "data_type": "6c35bd4a-dc6a-11ea-906f-062f7acd21ca",
            "format": "X(5)",
            "maximum_length": 5,
            "unit_of_measure": null,
            "conceptual_domain": null,
            "classification_scheme": null,
            "representation_class": 2,
            "description": "",
            "metadatareferencelink_set": [],
            "permissiblevalue_set": [
                {
                    "id": "acddca26-dc6b-11ea-ac21-02b137f3fb1e",
                    "value": "1",
                    "meaning": "Authority has been referred",
                    "value_meaning": null,
                    "order": 1,
                    "start_date": "2020-07-28",
                    "end_date": "9999-09-09"
                },
                {
                    "id": "acddd03e-dc6b-11ea-ac21-02b137f3fb1e",
                    "value": "2",
                    "meaning": "Authority referral has been actioned by Services Australia Operator",
                    "value_meaning": null,
                    "order": 2,
                    "start_date": "2020-07-28",
                    "end_date": "9999-09-09"
                }
            ],
            "supplementaryvalue_set": [],
            "slots": [],
            "customvalue_set": [
                {
                    "id": 65572,
                    "name": "Long Name",
                    "field": 5,
                    "content": ""
                },
                {
                    "id": 65573,
                    "name": "M204 Name",
                    "field": 6,
                    "content": ""
                },
                {
                    "id": 65574,
                    "name": "Guide for Use",
                    "field": 7,
                    "content": ""
                }
            ],
            "org_records": [],
            "identifiers": [
                {
                    "id": "acd03f14-dc6b-11ea-ac21-02b137f3fb1e",
                    "namespace": 4,
                    "identifier": "73781",
                    "version": "",
                    "order": 0
                }
            ],
            "reference_classification": null
        },
        {
            "id": 13349,
            "created": "2020-08-12T17:16:00.397368+10:00",
            "modified": "2021-07-05T14:23:52.159509+10:00",
            "uuid": "ac9f9d64-dc6b-11ea-8a08-02b137f3fb1e",
            "name": "Parameter Value Alternate Type Code X(8)",
            "definition": "A code set which represents a type of parameter value alternate.",
            "stewardship_organisation": "7089da98b44c11ea849a5a0bdf2d1ed7",
            "workgroup": 118,
            "version": "",
            "references": "",
            "origin_URI": "",
            "origin": "",
            "comments": "",
            "data_type": "6c35bd4a-dc6a-11ea-906f-062f7acd21ca",
            "format": "X(8)",
            "maximum_length": 8,
            "unit_of_measure": null,
            "conceptual_domain": null,
            "classification_scheme": null,
            "representation_class": 2,
            "description": "",
            "metadatareferencelink_set": [],
            "permissiblevalue_set": [],
            "supplementaryvalue_set": [],
            "slots": [],
            "customvalue_set": [],
            "org_records": [],
            "identifiers": [
                {
                    "id": "acac7dae-dc6b-11ea-8a08-02b137f3fb1e",
                    "namespace": 4,
                    "identifier": "73636",
                    "version": "",
                    "order": 0
                }
            ],
            "reference_classification": null
        },
        {
            "id": 52012,
            "created": "2020-09-28T09:44:24.993689+10:00",
            "modified": "2020-09-30T14:01:49.289041+10:00",
            "uuid": "5feb5dda-011b-11eb-b13e-0a781a7f93d4",
            "name": "Business Partner Category Code X(4)",
            "definition": "The code set that represents a category that a Business Partner belongs to.",
            "stewardship_organisation": "7089da98b44c11ea849a5a0bdf2d1ed7",
            "workgroup": 118,
            "version": "1",
            "references": "",
            "origin_URI": "",
            "origin": "",
            "comments": "",
            "data_type": "6c35bd4a-dc6a-11ea-906f-062f7acd21ca",
            "format": "X(4)",
            "maximum_length": 4,
            "unit_of_measure": null,
            "conceptual_domain": null,
            "classification_scheme": null,
            "representation_class": 2,
            "description": "",
            "metadatareferencelink_set": [],
            "permissiblevalue_set": [],
            "supplementaryvalue_set": [],
            "slots": [],
            "customvalue_set": [
                {
                    "id": 54515,
                    "name": "Long Name",
                    "field": 5,
                    "content": ""
                },
                {
                    "id": 54516,
                    "name": "M204 Name",
                    "field": 6,
                    "content": ""
                },
                {
                    "id": 54517,
                    "name": "Guide for Use",
                    "field": 7,
                    "content": ""
                }
            ],
            "org_records": [],
            "identifiers": [],
            "reference_classification": null
        },
        {
            "id": 86,
            "created": "2018-08-10T14:00:16.249476+10:00",
            "modified": "2021-04-15T17:06:40.227103+10:00",
            "uuid": "3fb11154-9c50-11e8-92a9-0273a7ea5052",
            "name": "Home ownership code A",
            "definition": "A code set representing status of home ownership.",
            "stewardship_organisation": "e4414942db3711e995fe62bb09eaf366",
            "workgroup": 6,
            "version": "",
            "references": "",
            "origin_URI": "http://meteor.aihw.gov.au/content/index.phtml/itemId/645468",
            "origin": "",
            "comments": "",
            "data_type": "9af47e4c-b395-11e7-a7b7-0242ac110009",
            "format": "A",
            "maximum_length": 1,
            "unit_of_measure": null,
            "conceptual_domain": null,
            "classification_scheme": null,
            "representation_class": null,
            "description": "",
            "metadatareferencelink_set": [],
            "permissiblevalue_set": [
                {
                    "id": "e9129688-731c-11ea-826c-6660846ba4fa",
                    "value": "H",
                    "meaning": "Homeowner",
                    "value_meaning": null,
                    "order": 0,
                    "start_date": null,
                    "end_date": null
                },
                {
                    "id": "e92eaf08-731c-11ea-826c-6660846ba4fa",
                    "value": "N",
                    "meaning": "Non-homeowner",
                    "value_meaning": null,
                    "order": 1,
                    "start_date": null,
                    "end_date": null
                }
            ],
            "supplementaryvalue_set": [],
            "slots": [],
            "customvalue_set": [
                {
                    "id": 4,
                    "name": "Submitting Organisation",
                    "field": 3,
                    "content": "Australian Government Department of Social Services"
                }
            ],
            "org_records": [],
            "identifiers": [
                {
                    "id": "00573c0e-731d-11ea-826c-6660846ba4fa",
                    "namespace": 2,
                    "identifier": "645468",
                    "version": "1",
                    "order": 0
                }
            ],
            "reference_classification": null
        }
    ]
}